-------------------------------------------------------------------------------
Test set: org.jeq.AppTest
-------------------------------------------------------------------------------
Tests run: 6, Failures: 0, Errors: 0, Skipped: 0, Time elapsed: 0.208 s - in org.jeq.AppTest
